<svg width="36" height="36" viewBox="0 0 36 36" fill="none" xmlns="http://www.w3.org/2000/svg">
<circle cx="18" cy="18" r="18" fill="url(#paint0_linear_198_2315)"/>
<circle cx="18" cy="18" r="12" transform="rotate(-180 18 18)" fill="url(#paint1_linear_198_2315)"/>
<ellipse rx="6" ry="6" transform="matrix(-1 -8.74228e-08 -8.74228e-08 1 18 18)" fill="#76539C"/>
<defs>
<linearGradient id="paint0_linear_198_2315" x1="18" y1="-1.07896e-06" x2="18" y2="31.5" gradientUnits="userSpaceOnUse">
<stop stop-color="#E9973E"/>
<stop offset="1" stop-color="#E9973E" stop-opacity="0"/>
</linearGradient>
<linearGradient id="paint1_linear_198_2315" x1="18" y1="6" x2="18" y2="27" gradientUnits="userSpaceOnUse">
<stop stop-color="#E9973E"/>
<stop offset="1" stop-color="#E9973E" stop-opacity="0"/>
</linearGradient>
</defs>
</svg>
