<svg width="23" height="23" viewBox="0 0 23 23" fill="none" xmlns="http://www.w3.org/2000/svg">
<path d="M11.6875 0L11.375 0.28125L4.59375 7H0V23H16.8438C17.5521 23 18.1771 22.7812 18.7188 22.3438C19.2812 21.8854 19.6354 21.3125 19.7812 20.625L21.9375 10.625C22.0625 10.0208 22.0104 9.4375 21.7812 8.875C21.5521 8.3125 21.1875 7.86458 20.6875 7.53125C20.1875 7.17708 19.625 7 19 7H13.25L13.4375 6.25L13.5312 6.1875C13.7188 6.04167 13.8958 5.85417 14.0625 5.625C14.6875 4.77083 15 3.78125 15 2.65625C15 1.92708 14.7083 1.30208 14.125 0.78125C13.5625 0.260417 12.8854 0 12.0938 0H11.6875ZM12.4062 2.09375C12.8021 2.17708 13 2.36458 13 2.65625C13 3.38542 12.8229 3.98958 12.4688 4.46875C12.3646 4.61458 12.2604 4.72917 12.1562 4.8125L12.0312 4.90625L11.6875 5.09375L11.5625 5.5L10.9688 7.75L10.6562 9H19C19.3333 9 19.5938 9.125 19.7812 9.375C19.9688 9.60417 20.0312 9.88542 19.9688 10.2188L17.8438 20.2188C17.8021 20.4479 17.6875 20.6354 17.5 20.7812C17.3125 20.9271 17.0938 21 16.8438 21H6V8.40625L12.4062 2.09375ZM2 9H4V21H2V9Z" fill="url(#paint0_linear_202_4356)"/>
<defs>
<linearGradient id="paint0_linear_202_4356" x1="11" y1="-11" x2="11" y2="31" gradientUnits="userSpaceOnUse">
<stop stop-color="#E9973E"/>
<stop offset="1" stop-color="#E9973E" stop-opacity="0"/>
</linearGradient>
</defs>
</svg>
